{
  "variables":{
    "client_id":"{{env `CLIENT_ID`}}",
    "client_secret":"{{env `CLIENT_SECRET`}}",
    "tenant_id":"{{env `TENANT_ID`}}",
    "subscription_id":"{{env `SUBSCRIPTION_ID`}}"
  },
  "builders":[
    {
      "type":"azure-arm",

      "client_id":"{{user `client_id`}}",
      "client_secret":"{{user `client_secret`}}",
      "tenant_id":"{{user `tenant_id`}}",
      "subscription_id":"{{user `subscription_id`}}",

      "managed_image_resource_group_name":"packer_rg",
      "managed_image_name":"rhel-{{timestamp}}",

      "virtual_network_name":"test_rg_vnet",
      "virtual_network_subnet_name":"test_rg_snet",

      "os_type":"Linux",
      "image_publisher":"OpenLogic",
      "image_version": "7.9.2021020400",
      "image_offer":"CentOS",
      "image_sku":"7_9",

      "location":"East US",
      "vm_size":"Standard_A1",

      "azure_tags":{
        "owner":"Bhadra",
        "environment":"dev",
        "location":"eastus"
      }
    }
  ],
  "provisioners":[
    {
      "execute_command":"chmod +x {{ .Path }}; {{ .Vars }} sudo -E sh '{{ .Path }}'",
      "inline":[
        "sudo yum -y update"
      ],
      "inline_shebang":"/bin/sh -x",
      "type":"shell"
    },

    {
      "execute_command":"chmod +x {{ .Path }}; {{ .Vars }} sudo -E sh '{{ .Path }}'",
      "inline":[
        "sudo yum -y install https://releases.ansible.com/ansible/rpm/release/epel-7-x86_64/ansible-2.9.21-1.e17.ans.noarch.rpm bind-utils traceroute"
      ],
      "inline_shebang":"/bin/sh -x",
      "type":"shell"
    }

  ]
}